C:\OSL\Courses\Neueda\2021-08-xx Grad Progs\sprint4\Docker and OpenShift for Citi\Labs\DoshDev\Demos\06-CiCd\cicd-products-spring-boot-webapp\src\main\java\mypackage\Application.java
C:\OSL\Courses\Neueda\2021-08-xx Grad Progs\sprint4\Docker and OpenShift for Citi\Labs\DoshDev\Demos\06-CiCd\cicd-products-spring-boot-webapp\src\main\java\mypackage\EmployeeRowMapper.java
C:\OSL\Courses\Neueda\2021-08-xx Grad Progs\sprint4\Docker and OpenShift for Citi\Labs\DoshDev\Demos\06-CiCd\cicd-products-spring-boot-webapp\src\main\java\mypackage\Product.java
C:\OSL\Courses\Neueda\2021-08-xx Grad Progs\sprint4\Docker and OpenShift for Citi\Labs\DoshDev\Demos\06-CiCd\cicd-products-spring-boot-webapp\src\main\java\mypackage\EmployeeRepository.java
C:\OSL\Courses\Neueda\2021-08-xx Grad Progs\sprint4\Docker and OpenShift for Citi\Labs\DoshDev\Demos\06-CiCd\cicd-products-spring-boot-webapp\src\main\java\mypackage\CiCdProductsController.java
C:\OSL\Courses\Neueda\2021-08-xx Grad Progs\sprint4\Docker and OpenShift for Citi\Labs\DoshDev\Demos\06-CiCd\cicd-products-spring-boot-webapp\src\main\java\mypackage\CiCdEmployeesController.java
C:\OSL\Courses\Neueda\2021-08-xx Grad Progs\sprint4\Docker and OpenShift for Citi\Labs\DoshDev\Demos\06-CiCd\cicd-products-spring-boot-webapp\src\main\java\mypackage\Employee.java
